Single Cell Data Analysis of Human Kidney Organoids
…
\(~\)

\(~\)

# Find markers for every cluster compared to all remaining cells.
org.markers = FindAllMarkers(org, min.pct = 0.25, logfc.threshold = 0.25)

org.markers %>% group_by(cluster) %>% top_n(n = 2, wt = avg_logFC)

## # A tibble: 142 x 7
## # Groups:   cluster [71]
##       p_val avg_logFC pct.1 pct.2 p_val_adj cluster gene  
##       <dbl>     <dbl> <dbl> <dbl>     <dbl> <fct>   <chr> 
##  1 5.05e-96     2.07  0.583 0.09   1.06e-91 0       UBE2C 
##  2 7.40e-89     2.12  0.801 0.216  1.55e-84 0       HMGB2 
##  3 7.44e-66     1.33  1     0.985  1.56e-61 1       TMSB4X
##  4 2.03e-37     1.40  0.767 0.38   4.26e-33 1       GNG11 
##  5 3.03e-44     2.05  0.529 0.148  6.33e-40 2       DUSP23
##  6 6.65e-44     2.13  0.42  0.091  1.39e-39 2       TCF21 
##  7 7.32e-22     1.55  0.387 0.132  1.53e-17 3       VAMP8 
##  8 3.08e- 8     1.66  0.394 0.266  6.45e- 4 3       AIF1  
##  9 1.64e-13     0.499 0.919 0.941  3.44e- 9 4       RPS27 
## 10 8.72e-12     0.522 0.83  0.713  1.82e- 7 4       MT-CO2
## # ... with 132 more rows
…
